{
    "uchars": [
        "numberOfInnermostPixelLayerHits",
        "numberOfNextToInnermostPixelLayerHits",
        "numberOfInnermostPixelLayerSharedHits",
        "numberOfInnermostPixelLayerSplitHits",
        "numberOfPixelHits",
        "numberOfPixelSharedHits",
        "numberOfPixelSplitHits",
        "numberOfSCTHits",
        "numberOfSCTSharedHits"
    ],
    "floats": [
        "qOverP"
    ],
    "customs": [
        "pt",
        "ptfrac",
        "deta",
        "z0RelativeToBeamspot",
        "qOverPUncertainty"
    ],
    "half_precision_customs": [
        "d0",
        "z0SinTheta",
        "d0Uncertainty",
        "z0SinThetaUncertainty",
        "phiUncertainty",
        "thetaUncertainty",
        "dphi",
        "z0RelativeToBeamspotUncertainty",
        "lifetimeSignedD0",
        "lifetimeSignedZ0SinTheta",
        "lifetimeSignedD0Significance",
        "lifetimeSignedZ0SinThetaSignificance"
    ],
    "ints": [
        "ftagTruthOriginLabel",
        "ftagTruthTypeLabel",
        "ftagTruthSourceLabel",
        "ftagTruthVertexIndex"
    ],
    "chars": [
        "leptonID"
    ]
}
